---
http_interactions:
- request:
    method: get
    uri: http://localhost:9292/system_events?limit=30&page=2
    body:
      encoding: US-ASCII
      string: ''
    headers:
      Accept:
      - "*/*"
      User-Agent:
      - rest-client/2.1.0 (darwin20.1.0 arm) ruby/2.7.2p137
      Content-Length:
      - '0'
      Content-Type:
      - application/x-www-form-urlencoded
      Accept-Encoding:
      - gzip;q=1.0,deflate;q=0.6,identity;q=0.3
      Host:
      - localhost:9292
  response:
    status:
      code: 200
      message: OK
    headers:
      Date:
      - Tue, 31 Aug 2021 15:55:30 GMT
      Content-Type:
      - application/json; charset=utf-8
      Transfer-Encoding:
      - chunked
      Connection:
      - close
      Ratelimit-Reset:
      - '30'
      X-Ratelimit-Remaining-Minute:
      - '4999'
      X-Ratelimit-Limit-Minute:
      - '5000'
      Ratelimit-Remaining:
      - '4999'
      Ratelimit-Limit:
      - '5000'
      Quota-Reset:
      - '29070'
      X-Quota-Remaining-Day:
      - '9999917'
      X-Quota-Limit-Day:
      - '10000000'
      Quota-Limit:
      - '10000000'
      Quota-Remaining:
      - '9999917'
    body:
      encoding: UTF-8
      string: '{"page":2,"pages":154,"limit":30,"count":4613,"records":[{"id":4583,"height":1175647,"time":"2020-06-29T17:38:16Z","actor":"0xD5Fb8A8E6E81BC77d7D807c05b5b8aEAe7c2a458","kind":"missed_n_consecutive","data":{"threshold":50},"actor_recent_name":"syncnode"},{"id":4582,"height":1175646,"time":"2020-06-29T17:38:11Z","actor":"0xD5Fb8A8E6E81BC77d7D807c05b5b8aEAe7c2a458","kind":"missed_n_consecutive","data":{"threshold":50},"actor_recent_name":"syncnode"},{"id":4581,"height":1175645,"time":"2020-06-29T17:38:06Z","actor":"0xD5Fb8A8E6E81BC77d7D807c05b5b8aEAe7c2a458","kind":"missed_n_consecutive","data":{"threshold":50},"actor_recent_name":"syncnode"},{"id":4580,"height":1175644,"time":"2020-06-29T17:38:01Z","actor":"0xD5Fb8A8E6E81BC77d7D807c05b5b8aEAe7c2a458","kind":"missed_n_consecutive","data":{"threshold":50},"actor_recent_name":"syncnode"},{"id":4579,"height":1175643,"time":"2020-06-29T17:37:56Z","actor":"0xD5Fb8A8E6E81BC77d7D807c05b5b8aEAe7c2a458","kind":"missed_n_consecutive","data":{"threshold":50},"actor_recent_name":"syncnode"},{"id":4578,"height":1175642,"time":"2020-06-29T17:37:51Z","actor":"0xD5Fb8A8E6E81BC77d7D807c05b5b8aEAe7c2a458","kind":"missed_n_consecutive","data":{"threshold":50},"actor_recent_name":"syncnode"},{"id":4577,"height":1175641,"time":"2020-06-29T17:37:46Z","actor":"0xD5Fb8A8E6E81BC77d7D807c05b5b8aEAe7c2a458","kind":"missed_n_consecutive","data":{"threshold":50},"actor_recent_name":"syncnode"},{"id":4576,"height":1175640,"time":"2020-06-29T17:37:41Z","actor":"0xD5Fb8A8E6E81BC77d7D807c05b5b8aEAe7c2a458","kind":"missed_n_consecutive","data":{"threshold":50},"actor_recent_name":"syncnode"},{"id":4575,"height":1175639,"time":"2020-06-29T17:37:36Z","actor":"0xD5Fb8A8E6E81BC77d7D807c05b5b8aEAe7c2a458","kind":"missed_n_consecutive","data":{"threshold":50},"actor_recent_name":"syncnode"},{"id":4574,"height":1175638,"time":"2020-06-29T17:37:31Z","actor":"0xD5Fb8A8E6E81BC77d7D807c05b5b8aEAe7c2a458","kind":"missed_n_consecutive","data":{"threshold":50},"actor_recent_name":"syncnode"},{"id":4573,"height":1175637,"time":"2020-06-29T17:37:26Z","actor":"0xD5Fb8A8E6E81BC77d7D807c05b5b8aEAe7c2a458","kind":"missed_n_consecutive","data":{"threshold":50},"actor_recent_name":"syncnode"},{"id":4572,"height":1175636,"time":"2020-06-29T17:37:21Z","actor":"0xD5Fb8A8E6E81BC77d7D807c05b5b8aEAe7c2a458","kind":"missed_n_consecutive","data":{"threshold":50},"actor_recent_name":"syncnode"},{"id":4571,"height":1175635,"time":"2020-06-29T17:37:16Z","actor":"0xD5Fb8A8E6E81BC77d7D807c05b5b8aEAe7c2a458","kind":"missed_n_consecutive","data":{"threshold":50},"actor_recent_name":"syncnode"},{"id":4570,"height":1175634,"time":"2020-06-29T17:37:11Z","actor":"0xD5Fb8A8E6E81BC77d7D807c05b5b8aEAe7c2a458","kind":"missed_n_consecutive","data":{"threshold":50},"actor_recent_name":"syncnode"},{"id":4569,"height":1175633,"time":"2020-06-29T17:37:06Z","actor":"0xD5Fb8A8E6E81BC77d7D807c05b5b8aEAe7c2a458","kind":"missed_n_consecutive","data":{"threshold":50},"actor_recent_name":"syncnode"},{"id":4568,"height":1175632,"time":"2020-06-29T17:37:01Z","actor":"0xD5Fb8A8E6E81BC77d7D807c05b5b8aEAe7c2a458","kind":"missed_n_consecutive","data":{"threshold":50},"actor_recent_name":"syncnode"},{"id":4567,"height":1175631,"time":"2020-06-29T17:36:56Z","actor":"0xD5Fb8A8E6E81BC77d7D807c05b5b8aEAe7c2a458","kind":"missed_n_consecutive","data":{"threshold":50},"actor_recent_name":"syncnode"},{"id":4566,"height":1175630,"time":"2020-06-29T17:36:51Z","actor":"0xD5Fb8A8E6E81BC77d7D807c05b5b8aEAe7c2a458","kind":"missed_n_consecutive","data":{"threshold":50},"actor_recent_name":"syncnode"},{"id":4565,"height":1175629,"time":"2020-06-29T17:36:46Z","actor":"0xD5Fb8A8E6E81BC77d7D807c05b5b8aEAe7c2a458","kind":"missed_n_consecutive","data":{"threshold":50},"actor_recent_name":"syncnode"},{"id":4564,"height":1175628,"time":"2020-06-29T17:36:41Z","actor":"0xD5Fb8A8E6E81BC77d7D807c05b5b8aEAe7c2a458","kind":"missed_n_consecutive","data":{"threshold":50},"actor_recent_name":"syncnode"},{"id":4563,"height":1175627,"time":"2020-06-29T17:36:36Z","actor":"0xD5Fb8A8E6E81BC77d7D807c05b5b8aEAe7c2a458","kind":"missed_n_consecutive","data":{"threshold":50},"actor_recent_name":"syncnode"},{"id":4562,"height":1175626,"time":"2020-06-29T17:36:31Z","actor":"0xD5Fb8A8E6E81BC77d7D807c05b5b8aEAe7c2a458","kind":"missed_n_consecutive","data":{"threshold":50},"actor_recent_name":"syncnode"},{"id":4561,"height":1175625,"time":"2020-06-29T17:36:26Z","actor":"0xD5Fb8A8E6E81BC77d7D807c05b5b8aEAe7c2a458","kind":"missed_n_consecutive","data":{"threshold":50},"actor_recent_name":"syncnode"},{"id":4560,"height":1175624,"time":"2020-06-29T17:36:21Z","actor":"0xD5Fb8A8E6E81BC77d7D807c05b5b8aEAe7c2a458","kind":"missed_n_consecutive","data":{"threshold":50},"actor_recent_name":"syncnode"},{"id":4559,"height":1175623,"time":"2020-06-29T17:36:16Z","actor":"0xD5Fb8A8E6E81BC77d7D807c05b5b8aEAe7c2a458","kind":"missed_n_consecutive","data":{"threshold":50},"actor_recent_name":"syncnode"},{"id":4558,"height":1175622,"time":"2020-06-29T17:36:11Z","actor":"0xD5Fb8A8E6E81BC77d7D807c05b5b8aEAe7c2a458","kind":"missed_n_consecutive","data":{"threshold":50},"actor_recent_name":"syncnode"},{"id":4557,"height":1175621,"time":"2020-06-29T17:36:06Z","actor":"0xD5Fb8A8E6E81BC77d7D807c05b5b8aEAe7c2a458","kind":"missed_n_consecutive","data":{"threshold":50},"actor_recent_name":"syncnode"},{"id":4556,"height":1175620,"time":"2020-06-29T17:36:01Z","actor":"0xD5Fb8A8E6E81BC77d7D807c05b5b8aEAe7c2a458","kind":"missed_n_consecutive","data":{"threshold":50},"actor_recent_name":"syncnode"},{"id":4555,"height":1175619,"time":"2020-06-29T17:35:56Z","actor":"0xD5Fb8A8E6E81BC77d7D807c05b5b8aEAe7c2a458","kind":"missed_n_consecutive","data":{"threshold":50},"actor_recent_name":"syncnode"},{"id":4554,"height":1175618,"time":"2020-06-29T17:35:51Z","actor":"0xD5Fb8A8E6E81BC77d7D807c05b5b8aEAe7c2a458","kind":"missed_n_consecutive","data":{"threshold":50},"actor_recent_name":"syncnode"}]}'
  recorded_at: Tue, 31 Aug 2021 15:55:30 GMT
recorded_with: VCR 6.0.0
